{
  "routes": [
    {
      "method": "GET",
      "path": "/likethread",
      "handler": "LikeThread.find",
      "config": {
        "policies": []
      }
    },
    {
      "method": "GET",
      "path": "/likethread/:_id",
      "handler": "LikeThread.findOne",
      "config": {
        "policies": []
      }
    },
    {
      "method": "POST",
      "path": "/likethread",
      "handler": "LikeThread.create",
      "config": {
        "policies": []
      }
    },
    {
      "method": "PUT",
      "path": "/likethread/:_id",
      "handler": "LikeThread.update",
      "config": {
        "policies": []
      }
    },
    {
      "method": "DELETE",
      "path": "/likethread/:_id",
      "handler": "LikeThread.destroy",
      "config": {
        "policies": []
      }
    }
  ]
}
