{
  "routes": [
    {
      "method": "GET",
      "path": "/likecomment",
      "handler": "LikeComment.find",
      "config": {
        "policies": []
      }
    },
    {
      "method": "GET",
      "path": "/likecomment/:_id",
      "handler": "LikeComment.findOne",
      "config": {
        "policies": []
      }
    },
    {
      "method": "POST",
      "path": "/likecomment",
      "handler": "LikeComment.create",
      "config": {
        "policies": []
      }
    },
    {
      "method": "PUT",
      "path": "/likecomment/:_id",
      "handler": "LikeComment.update",
      "config": {
        "policies": []
      }
    },
    {
      "method": "DELETE",
      "path": "/likecomment/:_id",
      "handler": "LikeComment.destroy",
      "config": {
        "policies": []
      }
    }
  ]
}
